02/uart/uart_tb.vcd
$date
	Wed Apr 17 21:11:53 2024
$end
$version
	Icarus Verilog
$end
$timescale
	1ns
$end
$scope module uart_tb $end
$var wire 1 ! tx_dout_serial $end
$var wire 1 " tx_done $end
$var wire 1 # tx_busy $end
$var wire 1 $ rx_recv $end
$var wire 8 % rx_data [7:0] $end
$var wire 1 & rx_busy $end
$var reg 1 ' clk $end
$var reg 1 ( rx_din_serial $end
$var reg 1 ) rx_enable $end
$var reg 8 * tx_data [7:0] $end
$var reg 1 + tx_start $end
$scope module UART_RX_INST $end
$var wire 1 , din_negedge_signal $end
$var wire 1 ' i_clk $end
$var wire 1 ( i_din $end
$var wire 1 ) i_enable $end
$var wire 8 - o_rxdata [7:0] $end
$var wire 1 . bit_ticks_ovf_signal $end
$var wire 1 / bit_counter_ovf_signal $end
$var reg 4 0 bit_counter [3:0] $end
$var reg 3 1 bit_ticks_comparator [2:0] $end
$var reg 3 2 bit_ticks_counter [2:0] $end
$var reg 5 3 currentState [4:0] $end
$var reg 1 4 din_buff $end
$var reg 5 5 nextState [4:0] $end
$var reg 1 & o_busy $end
$var reg 1 $ o_recvdata $end
$var reg 8 6 rx_data [7:0] $end
$upscope $end
$scope module UART_TX_INST $end
$var wire 1 ' i_clk $end
$var wire 8 7 i_data [7:0] $end
$var wire 1 + i_start $end
$var wire 1 # o_busy $end
$var wire 1 " o_done $end
$var wire 1 ! o_dout $end
$var wire 1 8 tx_bit_counter_ovf $end
$var wire 1 9 ticks_counter_ovf $end
$var reg 1 : busy_flag $end
$var reg 5 ; currentState [4:0] $end
$var reg 1 < done_flag $end
$var reg 5 = nextState [4:0] $end
$var reg 3 > ticks_counter [2:0] $end
$var reg 4 ? tx_bit_counter [3:0] $end
$var reg 1 @ tx_output $end
$var reg 8 A tx_reg [7:0] $end
$upscope $end
$scope task UART_SOFT_WRITE_BYTE $end
$var reg 8 B i_data [7:0] $end
$var integer 32 C ii [31:0] $end
$upscope $end
$scope task UART_TX_WRITE_BYTE $end
$var reg 8 D i_data [7:0] $end
$upscope $end
$upscope $end
$enddefinitions $end
#0
$dumpvars
bx D
bx C
bx B
b0 A
1@
b0 ?
b0 >
b1 =
0<
b1 ;
0:
09
08
b0 7
b0 6
b1 5
14
b1 3
b0 2
b1 1
b0 0
0/
0.
b0 -
0,
0+
b0 *
1)
1(
0'
0&
b0 %
0$
0#
0"
1!
$end
#10
1'
#20
0'
#30
b10 5
1,
0(
b10101011 B
1'
#40
0'
#50
0,
1&
04
b10 3
1'
#60
0'
#70
b100 5
1.
b1 2
1'
#80
0'
#90
b11 1
0.
b0 2
b100 3
1'
#100
0'
#110
b1 2
14
1'
1(
b0 C
#120
0'
#130
b10 2
1'
#140
0'
#150
1.
b11 2
1'
#160
0'
#170
b10000000 %
b10000000 -
b10000000 6
b1 0
0.
b0 2
1'
#180
0'
#190
b1 2
1'
b1 C
#200
0'
#210
b10 2
1'
#220
0'
#230
1.
b11 2
1'
#240
0'
#250
b11000000 %
b11000000 -
b11000000 6
b10 0
0.
b0 2
1'
#260
0'
#270
b1 2
04
1'
0,
0(
b10 C
#280
0'
#290
b10 2
1'
#300
0'
#310
1.
b11 2
1'
#320
0'
#330
b1100000 %
b1100000 -
b1100000 6
b11 0
0.
b0 2
1'
#340
0'
#350
b1 2
14
1'
1(
b11 C
#360
0'
#370
b10 2
1'
#380
0'
#390
1.
b11 2
1'
#400
0'
#410
b10110000 %
b10110000 -
b10110000 6
b100 0
0.
b0 2
1'
#420
0'
#430
b1 2
04
1'
0,
0(
b100 C
#440
0'
#450
b10 2
1'
#460
0'
#470
1.
b11 2
1'
#480
0'
#490
b1011000 %
b1011000 -
b1011000 6
b101 0
0.
b0 2
1'
#500
0'
#510
b1 2
14
1'
1(
b101 C
#520
0'
#530
b10 2
1'
#540
0'
#550
1.
b11 2
1'
#560
0'
#570
b10101100 %
b10101100 -
b10101100 6
b110 0
0.
b0 2
1'
#580
0'
#590
b1 2
04
1'
0,
0(
b110 C
#600
0'
#610
b10 2
1'
#620
0'
#630
1.
b11 2
1'
#640
0'
#650
b1010110 %
b1010110 -
b1010110 6
b111 0
0.
b0 2
1'
#660
0'
#670
b1 2
14
1'
1(
b111 C
#680
0'
#690
b10 2
1'
#700
0'
#710
1.
b11 2
1'
#720
0'
#730
b1000 5
1/
b10101011 %
b10101011 -
b10101011 6
b1000 0
0.
b0 2
1'
#740
0'
#750
b1 2
b1000 3
1'
b1000 C
#760
0'
#770
b10 2
1'
#780
0'
#790
b10000 5
1.
b11 2
1'
#800
0'
#810
b1 5
1$
0.
b0 2
b10000 3
1'
#820
0'
#830
b1 1
0&
0$
b1 3
1'
#840
0'
#850
0/
b0 0
1'
#860
0'
#870
1'
#880
0'
#890
1'
#900
0'
#910
1'
b1101 D
#920
0'
#930
b10 =
b1101 *
b1101 7
1+
1'
#940
0'
#950
b10 5
1,
0(
0!
0@
1#
1:
b1101 A
b10 ;
0+
1'
#960
0'
#970
0,
1&
04
b10 3
b1 >
1'
#980
0'
#990
b100 5
b10 >
1.
b1 2
1'
#1000
0'
#1010
b11 1
b100 =
0.
b0 2
b100 3
19
b11 >
1'
#1020
0'
#1030
1(
1!
1@
09
b0 >
b100 ;
b1 2
1'
#1040
0'
#1050
b10 2
14
b1 >
1'
#1060
0'
#1070
b10 >
1.
b11 2
1'
#1080
0'
#1090
b11010101 %
b11010101 -
b11010101 6
b1 0
0.
b0 2
19
b11 >
1'
#1100
0'
#1110
1,
0(
0!
0@
b110 A
b1 ?
09
b0 >
b1 2
1'
#1120
0'
#1130
0,
b10 2
04
b1 >
1'
#1140
0'
#1150
b10 >
1.
b11 2
1'
#1160
0'
#1170
b1101010 %
b1101010 -
b1101010 6
b10 0
0.
b0 2
19
b11 >
1'
#1180
0'
#1190
1(
1!
1@
b11 A
b10 ?
09
b0 >
b1 2
1'
#1200
0'
#1210
b10 2
14
b1 >
1'
#1220
0'
#1230
b10 >
1.
b11 2
1'
#1240
0'
#1250
b10110101 %
b10110101 -
b10110101 6
b11 0
0.
b0 2
19
b11 >
1'
#1260
0'
#1270
b1 A
b11 ?
09
b0 >
b1 2
1'
#1280
0'
#1290
b10 2
b1 >
1'
#1300
0'
#1310
b10 >
1.
b11 2
1'
#1320
0'
#1330
b11011010 %
b11011010 -
b11011010 6
b100 0
0.
b0 2
19
b11 >
1'
#1340
0'
#1350
1,
0(
0!
0@
b0 A
b100 ?
09
b0 >
b1 2
1'
#1360
0'
#1370
0,
b10 2
04
b1 >
1'
#1380
0'
#1390
b10 >
1.
b11 2
1'
#1400
0'
#1410
b1101101 %
b1101101 -
b1101101 6
b101 0
0.
b0 2
19
b11 >
1'
#1420
0'
#1430
b101 ?
09
b0 >
b1 2
1'
#1440
0'
#1450
b10 2
b1 >
1'
#1460
0'
#1470
b10 >
1.
b11 2
1'
#1480
0'
#1490
b110110 %
b110110 -
b110110 6
b110 0
0.
b0 2
19
b11 >
1'
#1500
0'
#1510
b110 ?
09
b0 >
b1 2
1'
#1520
0'
#1530
b10 2
b1 >
1'
#1540
0'
#1550
b10 >
1.
b11 2
1'
#1560
0'
#1570
b11011 %
b11011 -
b11011 6
b111 0
0.
b0 2
19
b11 >
1'
#1580
0'
#1590
b111 ?
09
b0 >
b1 2
1'
#1600
0'
#1610
b10 2
b1 >
1'
#1620
0'
#1630
b10 >
1.
b11 2
1'
#1640
0'
#1650
b1000 5
1/
b1101 %
b1101 -
b1101 6
b1000 0
0.
b0 2
19
b11 >
1'
#1660
0'
#1670
b1000 =
1(
1!
1@
18
b1000 ?
09
b0 >
b1 2
b1000 3
1'
#1680
0'
#1690
b10 2
14
b1 >
b1000 ;
1'
#1700
0'
#1710
b10000 5
b10 >
1.
b11 2
1'
#1720
0'
#1730
b1 5
1$
b10000 =
0.
b0 2
b10000 3
19
b11 >
1'
#1740
0'
#1750
b1 =
1"
1<
b1 1
0&
0$
09
b0 >
b10000 ;
b1 3
1'
#1760
0'
#1770
0/
0#
0:
0"
0<
b0 0
b1 ;
1'
